Brian Leung – 10 Lessons in Data Visualization
…
Lesson 2: Get rid of excessive space or ink

gapminder

# A tibble: 1,704 × 6
   country     continent  year lifeExp      pop gdpPercap
   <fct>       <fct>     <int>   <dbl>    <int>     <dbl>
 1 Afghanistan Asia       1952    28.8  8425333      779.
 2 Afghanistan Asia       1957    30.3  9240934      821.
 3 Afghanistan Asia       1962    32.0 10267083      853.
 4 Afghanistan Asia       1967    34.0 11537966      836.
 5 Afghanistan Asia       1972    36.1 13079460      740.
 6 Afghanistan Asia       1977    38.4 14880372      786.
 7 Afghanistan Asia       1982    39.9 12881816      978.
 8 Afghanistan Asia       1987    40.8 13867957      852.
 9 Afghanistan Asia       1992    41.7 16317921      649.
10 Afghanistan Asia       1997    41.8 22227415      635.
# ℹ 1,694 more rows

Lesson 2: Get rid of excessive space or ink

gapminder %>%
  group_by(country, continent)

# A tibble: 1,704 × 6
# Groups:   country, continent [142]
   country     continent  year lifeExp      pop gdpPercap
   <fct>       <fct>     <int>   <dbl>    <int>     <dbl>
 1 Afghanistan Asia       1952    28.8  8425333      779.
 2 Afghanistan Asia       1957    30.3  9240934      821.
 3 Afghanistan Asia       1962    32.0 10267083      853.
 4 Afghanistan Asia       1967    34.0 11537966      836.
 5 Afghanistan Asia       1972    36.1 13079460      740.
 6 Afghanistan Asia       1977    38.4 14880372      786.
 7 Afghanistan Asia       1982    39.9 12881816      978.
 8 Afghanistan Asia       1987    40.8 13867957      852.
 9 Afghanistan Asia       1992    41.7 16317921      649.
10 Afghanistan Asia       1997    41.8 22227415      635.
# ℹ 1,694 more rows

Lesson 2: Get rid of excessive space or ink

gapminder %>%
  group_by(country, continent) %>%
  summarize(lifeExp_mean = mean(lifeExp))

# A tibble: 142 × 3
# Groups:   country [142]
   country     continent lifeExp_mean
   <fct>       <fct>            <dbl>
 1 Afghanistan Asia              37.5
 2 Albania     Europe            68.4
 3 Algeria     Africa            59.0
 4 Angola      Africa            37.9
 5 Argentina   Americas          69.1
 6 Australia   Oceania           74.7
 7 Austria     Europe            73.1
 8 Bahrain     Asia              65.6
 9 Bangladesh  Asia              49.8
10 Belgium     Europe            73.6
# ℹ 132 more rows

Lesson 2: Get rid of excessive space or ink

gapminder %>%
  group_by(country, continent) %>%
  summarize(lifeExp_mean = mean(lifeExp)) %>%
  ungroup()

# A tibble: 142 × 3
   country     continent lifeExp_mean
   <fct>       <fct>            <dbl>
 1 Afghanistan Asia              37.5
 2 Albania     Europe            68.4
 3 Algeria     Africa            59.0
 4 Angola      Africa            37.9
 5 Argentina   Americas          69.1
 6 Australia   Oceania           74.7
 7 Austria     Europe            73.1
 8 Bahrain     Asia              65.6
 9 Bangladesh  Asia              49.8
10 Belgium     Europe            73.6
# ℹ 132 more rows
…
Lesson 5: Use small multiples

Lesson 5: Use small multiples

## create a decade variable
gapminder

# A tibble: 1,704 × 6
   country     continent  year lifeExp      pop gdpPercap
   <fct>       <fct>     <int>   <dbl>    <int>     <dbl>
 1 Afghanistan Asia       1952    28.8  8425333      779.
 2 Afghanistan Asia       1957    30.3  9240934      821.
 3 Afghanistan Asia       1962    32.0 10267083      853.
 4 Afghanistan Asia       1967    34.0 11537966      836.
 5 Afghanistan Asia       1972    36.1 13079460      740.
 6 Afghanistan Asia       1977    38.4 14880372      786.
 7 Afghanistan Asia       1982    39.9 12881816      978.
 8 Afghanistan Asia       1987    40.8 13867957      852.
 9 Afghanistan Asia       1992    41.7 16317921      649.
10 Afghanistan Asia       1997    41.8 22227415      635.
# ℹ 1,694 more rows

Lesson 5: Use small multiples

## create a decade variable
gapminder %>%
  mutate(decade = year %/% 10)

# A tibble: 1,704 × 7
   country     continent  year lifeExp      pop gdpPercap decade
   <fct>       <fct>     <int>   <dbl>    <int>     <dbl>  <dbl>
 1 Afghanistan Asia       1952    28.8  8425333      779.    195
 2 Afghanistan Asia       1957    30.3  9240934      821.    195
 3 Afghanistan Asia       1962    32.0 10267083      853.    196
 4 Afghanistan Asia       1967    34.0 11537966      836.    196
 5 Afghanistan Asia       1972    36.1 13079460      740.    197
 6 Afghanistan Asia       1977    38.4 14880372      786.    197
 7 Afghanistan Asia       1982    39.9 12881816      978.    198
 8 Afghanistan Asia       1987    40.8 13867957      852.    198
 9 Afghanistan Asia       1992    41.7 16317921      649.    199
10 Afghanistan Asia       1997    41.8 22227415      635.    199
# ℹ 1,694 more rows

Lesson 5: Use small multiples

## create a decade variable
gapminder %>%
  mutate(decade = year %/% 10) %>%
  mutate(decade = decade * 10)

# A tibble: 1,704 × 7
   country     continent  year lifeExp      pop gdpPercap decade
   <fct>       <fct>     <int>   <dbl>    <int>     <dbl>  <dbl>
 1 Afghanistan Asia       1952    28.8  8425333      779.   1950
 2 Afghanistan Asia       1957    30.3  9240934      821.   1950
 3 Afghanistan Asia       1962    32.0 10267083      853.   1960
 4 Afghanistan Asia       1967    34.0 11537966      836.   1960
 5 Afghanistan Asia       1972    36.1 13079460      740.   1970
 6 Afghanistan Asia       1977    38.4 14880372      786.   1970
 7 Afghanistan Asia       1982    39.9 12881816      978.   1980
 8 Afghanistan Asia       1987    40.8 13867957      852.   1980
 9 Afghanistan Asia       1992    41.7 16317921      649.   1990
10 Afghanistan Asia       1997    41.8 22227415      635.   1990
# ℹ 1,694 more rows
…
Lesson 5: Use small multiples

## facet_grid vs. facet_wrap
## Imagine we have some NAs
gapminder

# A tibble: 1,704 × 7
   country     continent  year lifeExp      pop gdpPercap decade
   <fct>       <fct>     <int>   <dbl>    <int>     <dbl>  <dbl>
 1 Afghanistan Asia       1952    28.8  8425333      779.   1950
 2 Afghanistan Asia       1957    30.3  9240934      821.   1950
 3 Afghanistan Asia       1962    32.0 10267083      853.   1960
 4 Afghanistan Asia       1967    34.0 11537966      836.   1960
 5 Afghanistan Asia       1972    36.1 13079460      740.   1970
 6 Afghanistan Asia       1977    38.4 14880372      786.   1970
 7 Afghanistan Asia       1982    39.9 12881816      978.   1980
 8 Afghanistan Asia       1987    40.8 13867957      852.   1980
 9 Afghanistan Asia       1992    41.7 16317921      649.   1990
10 Afghanistan Asia       1997    41.8 22227415      635.   1990
# ℹ 1,694 more rows

Lesson 5: Use small multiples

## facet_grid vs. facet_wrap
## Imagine we have some NAs
gapminder %>%
  group_by(continent, decade)

# A tibble: 1,704 × 7
# Groups:   continent, decade [30]
   country     continent  year lifeExp      pop gdpPercap decade
   <fct>       <fct>     <int>   <dbl>    <int>     <dbl>  <dbl>
 1 Afghanistan Asia       1952    28.8  8425333      779.   1950
 2 Afghanistan Asia       1957    30.3  9240934      821.   1950
 3 Afghanistan Asia       1962    32.0 10267083      853.   1960
 4 Afghanistan Asia       1967    34.0 11537966      836.   1960
 5 Afghanistan Asia       1972    36.1 13079460      740.   1970
 6 Afghanistan Asia       1977    38.4 14880372      786.   1970
 7 Afghanistan Asia       1982    39.9 12881816      978.   1980
 8 Afghanistan Asia       1987    40.8 13867957      852.   1980
 9 Afghanistan Asia       1992    41.7 16317921      649.   1990
10 Afghanistan Asia       1997    41.8 22227415      635.   1990
# ℹ 1,694 more rows

Lesson 5: Use small multiples

## facet_grid vs. facet_wrap
## Imagine we have some NAs
gapminder %>%
  group_by(continent, decade) %>%
  nest()

# A tibble: 30 × 3
# Groups:   continent, decade [30]
   continent decade data             
   <fct>      <dbl> <list>           
 1 Asia        1950 <tibble [66 × 5]>
 2 Asia        1960 <tibble [66 × 5]>
 3 Asia        1970 <tibble [66 × 5]>
 4 Asia        1980 <tibble [66 × 5]>
 5 Asia        1990 <tibble [66 × 5]>
 6 Asia        2000 <tibble [66 × 5]>
 7 Europe      1950 <tibble [60 × 5]>
 8 Europe      1960 <tibble [60 × 5]>
 9 Europe      1970 <tibble [60 × 5]>
10 Europe      1980 <tibble [60 × 5]>
# ℹ 20 more rows

Lesson 5: Use small multiples

## facet_grid vs. facet_wrap
## Imagine we have some NAs
gapminder %>%
  group_by(continent, decade) %>%
  nest() %>%
  ungroup()

# A tibble: 30 × 3
   continent decade data             
   <fct>      <dbl> <list>           
 1 Asia        1950 <tibble [66 × 5]>
 2 Asia        1960 <tibble [66 × 5]>
 3 Asia        1970 <tibble [66 × 5]>
 4 Asia        1980 <tibble [66 × 5]>
 5 Asia        1990 <tibble [66 × 5]>
 6 Asia        2000 <tibble [66 × 5]>
 7 Europe      1950 <tibble [60 × 5]>
 8 Europe      1960 <tibble [60 × 5]>
 9 Europe      1970 <tibble [60 × 5]>
10 Europe      1980 <tibble [60 × 5]>
# ℹ 20 more rows
…
Lesson 5: Use small multiples

## facet_grid vs. facet_wrap
## Imagine we have some NAs
gapminder %>%
  group_by(continent, decade) %>%
  nest() %>%
  ungroup() %>%
  slice_sample(n = 10) %>%
  unnest(cols = data)

# A tibble: 448 × 7
   continent decade country      year lifeExp       pop gdpPercap
   <fct>      <dbl> <fct>       <int>   <dbl>     <int>     <dbl>
 1 Oceania     1970 Australia    1972    71.9  13177000    16789.
 2 Oceania     1970 Australia    1977    73.5  14074100    18334.
 3 Oceania     1970 New Zealand  1972    71.9   2929100    16046.
 4 Oceania     1970 New Zealand  1977    72.2   3164900    16234.
 5 Americas    2000 Argentina    2002    74.3  38331121     8798.
 6 Americas    2000 Argentina    2007    75.3  40301927    12779.
 7 Americas    2000 Bolivia      2002    63.9   8445134     3413.
 8 Americas    2000 Bolivia      2007    65.6   9119152     3822.
 9 Americas    2000 Brazil       2002    71.0 179914212     8131.
10 Americas    2000 Brazil       2007    72.4 190010647     9066.
# ℹ 438 more rows
…
Lesson 6: Diagonalize (sort) whenever possible

Lesson 6: Diagonalize (sort) whenever possible

## 1. categorize lifeExp
## 2. select on Asia & Africa
gapminder

# A tibble: 1,704 × 7
   country     continent  year lifeExp      pop gdpPercap decade
   <fct>       <fct>     <int>   <dbl>    <int>     <dbl>  <dbl>
 1 Afghanistan Asia       1952    28.8  8425333      779.   1950
 2 Afghanistan Asia       1957    30.3  9240934      821.   1950
 3 Afghanistan Asia       1962    32.0 10267083      853.   1960
 4 Afghanistan Asia       1967    34.0 11537966      836.   1960
 5 Afghanistan Asia       1972    36.1 13079460      740.   1970
 6 Afghanistan Asia       1977    38.4 14880372      786.   1970
 7 Afghanistan Asia       1982    39.9 12881816      978.   1980
 8 Afghanistan Asia       1987    40.8 13867957      852.   1980
 9 Afghanistan Asia       1992    41.7 16317921      649.   1990
10 Afghanistan Asia       1997    41.8 22227415      635.   1990
# ℹ 1,694 more rows

Lesson 6: Diagonalize (sort) whenever possible

## 1. categorize lifeExp
## 2. select on Asia & Africa
gapminder %>%
  mutate(lifeExp_cat = cut(lifeExp, 5, dig.lab = 2))

# A tibble: 1,704 × 8
   country     continent  year lifeExp      pop gdpPercap decade lifeExp_cat
   <fct>       <fct>     <int>   <dbl>    <int>     <dbl>  <dbl> <fct>      
 1 Afghanistan Asia       1952    28.8  8425333      779.   1950 (24,35]    
 2 Afghanistan Asia       1957    30.3  9240934      821.   1950 (24,35]    
 3 Afghanistan Asia       1962    32.0 10267083      853.   1960 (24,35]    
 4 Afghanistan Asia       1967    34.0 11537966      836.   1960 (24,35]    
 5 Afghanistan Asia       1972    36.1 13079460      740.   1970 (35,47]    
 6 Afghanistan Asia       1977    38.4 14880372      786.   1970 (35,47]    
 7 Afghanistan Asia       1982    39.9 12881816      978.   1980 (35,47]    
 8 Afghanistan Asia       1987    40.8 13867957      852.   1980 (35,47]    
 9 Afghanistan Asia       1992    41.7 16317921      649.   1990 (35,47]    
10 Afghanistan Asia       1997    41.8 22227415      635.   1990 (35,47]    
# ℹ 1,694 more rows

Lesson 6: Diagonalize (sort) whenever possible

## 1. categorize lifeExp
## 2. select on Asia & Africa
gapminder %>%
  mutate(lifeExp_cat = cut(lifeExp, 5, dig.lab = 2)) %>%
  filter(continent %in% c("Asia", "Africa"))

# A tibble: 1,020 × 8
   country     continent  year lifeExp      pop gdpPercap decade lifeExp_cat
   <fct>       <fct>     <int>   <dbl>    <int>     <dbl>  <dbl> <fct>      
 1 Afghanistan Asia       1952    28.8  8425333      779.   1950 (24,35]    
 2 Afghanistan Asia       1957    30.3  9240934      821.   1950 (24,35]    
 3 Afghanistan Asia       1962    32.0 10267083      853.   1960 (24,35]    
 4 Afghanistan Asia       1967    34.0 11537966      836.   1960 (24,35]    
 5 Afghanistan Asia       1972    36.1 13079460      740.   1970 (35,47]    
 6 Afghanistan Asia       1977    38.4 14880372      786.   1970 (35,47]    
 7 Afghanistan Asia       1982    39.9 12881816      978.   1980 (35,47]    
 8 Afghanistan Asia       1987    40.8 13867957      852.   1980 (35,47]    
 9 Afghanistan Asia       1992    41.7 16317921      649.   1990 (35,47]    
10 Afghanistan Asia       1997    41.8 22227415      635.   1990 (35,47]    
# ℹ 1,010 more rows
…
Lesson 7: Highlight interesting observations

Lesson 7: Highlight interesting observations

library(ggrepel)

Lesson 7: Highlight interesting observations

library(ggrepel)

gapminder_aa

# A tibble: 1,020 × 8
   country     continent  year lifeExp      pop gdpPercap decade lifeExp_cat
   <fct>       <fct>     <int>   <dbl>    <int>     <dbl>  <dbl> <fct>      
 1 Afghanistan Asia       1952    28.8  8425333      779.   1950 (24,35]    
 2 Afghanistan Asia       1957    30.3  9240934      821.   1950 (24,35]    
 3 Afghanistan Asia       1962    32.0 10267083      853.   1960 (24,35]    
 4 Afghanistan Asia       1967    34.0 11537966      836.   1960 (24,35]    
 5 Afghanistan Asia       1972    36.1 13079460      740.   1970 (35,47]    
 6 Afghanistan Asia       1977    38.4 14880372      786.   1970 (35,47]    
 7 Afghanistan Asia       1982    39.9 12881816      978.   1980 (35,47]    
 8 Afghanistan Asia       1987    40.8 13867957      852.   1980 (35,47]    
 9 Afghanistan Asia       1992    41.7 16317921      649.   1990 (35,47]    
10 Afghanistan Asia       1997    41.8 22227415      635.   1990 (35,47]    
# ℹ 1,010 more rows

Lesson 7: Highlight interesting observations

library(ggrepel)

gapminder_aa %>%
  filter(year == 2007)

# A tibble: 85 × 8
   country      continent  year lifeExp       pop gdpPercap decade lifeExp_cat
   <fct>        <fct>     <int>   <dbl>     <int>     <dbl>  <dbl> <fct>      
 1 Afghanistan  Asia       2007    43.8  31889923      975.   2000 (35,47]    
 2 Algeria      Africa     2007    72.3  33333216     6223.   2000 (71,83]    
 3 Angola       Africa     2007    42.7  12420476     4797.   2000 (35,47]    
 4 Bahrain      Asia       2007    75.6    708573    29796.   2000 (71,83]    
 5 Bangladesh   Asia       2007    64.1 150448339     1391.   2000 (59,71]    
 6 Benin        Africa     2007    56.7   8078314     1441.   2000 (47,59]    
 7 Botswana     Africa     2007    50.7   1639131    12570.   2000 (47,59]    
 8 Burkina Faso Africa     2007    52.3  14326203     1217.   2000 (47,59]    
 9 Burundi      Africa     2007    49.6   8390505      430.   2000 (47,59]    
10 Cambodia     Asia       2007    59.7  14131858     1714.   2000 (59,71]    
# ℹ 75 more rows
…
Coefficients:
     (Intercept)  log10(gdpPercap)  
           8.435            15.176  

Lesson 7: Highlight interesting observations

library(broom)

lm_res <- lm(lifeExp ~ log10(gdpPercap),
             data = gapminder_aa_07)

lm_res %>%
  augment(data = gapminder_aa_07)

# A tibble: 85 × 14
   country   continent  year lifeExp    pop gdpPercap decade lifeExp_cat .fitted
   <fct>     <fct>     <int>   <dbl>  <int>     <dbl>  <dbl> <fct>         <dbl>
 1 Afghanis… Asia       2007    43.8 3.19e7      975.   2000 (35,47]        53.8
 2 Algeria   Africa     2007    72.3 3.33e7     6223.   2000 (71,83]        66.0
 3 Angola    Africa     2007    42.7 1.24e7     4797.   2000 (35,47]        64.3
 4 Bahrain   Asia       2007    75.6 7.09e5    29796.   2000 (71,83]        76.3
 5 Banglade… Asia       2007    64.1 1.50e8     1391.   2000 (59,71]        56.1
 6 Benin     Africa     2007    56.7 8.08e6     1441.   2000 (47,59]        56.4
 7 Botswana  Africa     2007    50.7 1.64e6    12570.   2000 (47,59]        70.6
 8 Burkina … Africa     2007    52.3 1.43e7     1217.   2000 (47,59]        55.3
 9 Burundi   Africa     2007    49.6 8.39e6      430.   2000 (47,59]        48.4
10 Cambodia  Asia       2007    59.7 1.41e7     1714.   2000 (59,71]        57.5
# ℹ 75 more rows
# ℹ 5 more variables: .resid <dbl>, .hat <dbl>, .sigma <dbl>, .cooksd <dbl>,
#   .std.resid <dbl>
…
Lesson 7: Highlight interesting observations

library(broom)

lm_res <- lm(lifeExp ~ log10(gdpPercap),
             data = gapminder_aa_07)

lm_res %>%
  augment(data = gapminder_aa_07) ->
  gapminder_aa_07_augmented

gapminder_aa_07_augmented

# A tibble: 85 × 14
   country   continent  year lifeExp    pop gdpPercap decade lifeExp_cat .fitted
   <fct>     <fct>     <int>   <dbl>  <int>     <dbl>  <dbl> <fct>         <dbl>
 1 Afghanis… Asia       2007    43.8 3.19e7      975.   2000 (35,47]        53.8
 2 Algeria   Africa     2007    72.3 3.33e7     6223.   2000 (71,83]        66.0
 3 Angola    Africa     2007    42.7 1.24e7     4797.   2000 (35,47]        64.3
 4 Bahrain   Asia       2007    75.6 7.09e5    29796.   2000 (71,83]        76.3
 5 Banglade… Asia       2007    64.1 1.50e8     1391.   2000 (59,71]        56.1
 6 Benin     Africa     2007    56.7 8.08e6     1441.   2000 (47,59]        56.4
 7 Botswana  Africa     2007    50.7 1.64e6    12570.   2000 (47,59]        70.6
 8 Burkina … Africa     2007    52.3 1.43e7     1217.   2000 (47,59]        55.3
 9 Burundi   Africa     2007    49.6 8.39e6      430.   2000 (47,59]        48.4
10 Cambodia  Asia       2007    59.7 1.41e7     1714.   2000 (59,71]        57.5
# ℹ 75 more rows
# ℹ 5 more variables: .resid <dbl>, .hat <dbl>, .sigma <dbl>, .cooksd <dbl>,
#   .std.resid <dbl>
…
Lesson 8: Juxtapose observations

Lesson 8: Juxtapose observations

gapminder

# A tibble: 1,704 × 7
   country     continent  year lifeExp      pop gdpPercap decade
   <fct>       <fct>     <int>   <dbl>    <int>     <dbl>  <dbl>
 1 Afghanistan Asia       1952    28.8  8425333      779.   1950
 2 Afghanistan Asia       1957    30.3  9240934      821.   1950
 3 Afghanistan Asia       1962    32.0 10267083      853.   1960
 4 Afghanistan Asia       1967    34.0 11537966      836.   1960
 5 Afghanistan Asia       1972    36.1 13079460      740.   1970
 6 Afghanistan Asia       1977    38.4 14880372      786.   1970
 7 Afghanistan Asia       1982    39.9 12881816      978.   1980
 8 Afghanistan Asia       1987    40.8 13867957      852.   1980
 9 Afghanistan Asia       1992    41.7 16317921      649.   1990
10 Afghanistan Asia       1997    41.8 22227415      635.   1990
# ℹ 1,694 more rows
…
