Brian Leung – Efficient R Programming
…
$`Group B`
[1] -0.2839768

$`Group C`
[1] 0.3209036

Wrangling multiple columns

Iris example

library(tidyverse)
iris <- as_tibble(iris)
iris

# A tibble: 150 × 5
   Sepal.Length Sepal.Width Petal.Length Petal.Width Species
          <dbl>       <dbl>        <dbl>       <dbl> <fct>  
 1          5.1         3.5          1.4         0.2 setosa 
 2          4.9         3            1.4         0.2 setosa 
 3          4.7         3.2          1.3         0.2 setosa 
 4          4.6         3.1          1.5         0.2 setosa 
 5          5           3.6          1.4         0.2 setosa 
 6          5.4         3.9          1.7         0.4 setosa 
 7          4.6         3.4          1.4         0.3 setosa 
 8          5           3.4          1.5         0.2 setosa 
 9          4.4         2.9          1.4         0.2 setosa 
10          4.9         3.1          1.5         0.1 setosa 
# ℹ 140 more rows

Wrangling multiple columns

Round up one column

iris %>%
  mutate(Sepal.Length = round(Sepal.Length))

# A tibble: 150 × 5
   Sepal.Length Sepal.Width Petal.Length Petal.Width Species
          <dbl>       <dbl>        <dbl>       <dbl> <fct>  
 1            5         3.5          1.4         0.2 setosa 
 2            5         3            1.4         0.2 setosa 
 3            5         3.2          1.3         0.2 setosa 
 4            5         3.1          1.5         0.2 setosa 
 5            5         3.6          1.4         0.2 setosa 
 6            5         3.9          1.7         0.4 setosa 
 7            5         3.4          1.4         0.3 setosa 
 8            5         3.4          1.5         0.2 setosa 
 9            4         2.9          1.4         0.2 setosa 
10            5         3.1          1.5         0.1 setosa 
# ℹ 140 more rows

Wrangling multiple columns

How about multiple columns?

iris %>%
  mutate(Sepal.Length = round(Sepal.Length),
         Sepal.Width = round(Sepal.Width),
         Petal.Length = round(Petal.Length),
         Petal.Width = round(Petal.Width))

# A tibble: 150 × 5
   Sepal.Length Sepal.Width Petal.Length Petal.Width Species
          <dbl>       <dbl>        <dbl>       <dbl> <fct>  
 1            5           4            1           0 setosa 
 2            5           3            1           0 setosa 
 3            5           3            1           0 setosa 
 4            5           3            2           0 setosa 
 5            5           4            1           0 setosa 
 6            5           4            2           0 setosa 
 7            5           3            1           0 setosa 
 8            5           3            2           0 setosa 
 9            4           3            1           0 setosa 
10            5           3            2           0 setosa 
# ℹ 140 more rows

Wrangling multiple columns

Using across() with function

iris %>%
  mutate(across(.cols = c(Sepal.Length, Sepal.Width, Petal.Length, Petal.Width),
                .fns = round))

# A tibble: 150 × 5
   Sepal.Length Sepal.Width Petal.Length Petal.Width Species
          <dbl>       <dbl>        <dbl>       <dbl> <fct>  
 1            5           4            1           0 setosa 
 2            5           3            1           0 setosa 
 3            5           3            1           0 setosa 
 4            5           3            2           0 setosa 
 5            5           4            1           0 setosa 
 6            5           4            2           0 setosa 
 7            5           3            1           0 setosa 
 8            5           3            2           0 setosa 
 9            4           3            1           0 setosa 
10            5           3            2           0 setosa 
# ℹ 140 more rows

Wrangling multiple columns

For simplicity

iris %>%
  mutate(across(Sepal.Length:Petal.Width, round))

# A tibble: 150 × 5
   Sepal.Length Sepal.Width Petal.Length Petal.Width Species
          <dbl>       <dbl>        <dbl>       <dbl> <fct>  
 1            5           4            1           0 setosa 
 2            5           3            1           0 setosa 
 3            5           3            1           0 setosa 
 4            5           3            2           0 setosa 
 5            5           4            1           0 setosa 
 6            5           4            2           0 setosa 
 7            5           3            1           0 setosa 
 8            5           3            2           0 setosa 
 9            4           3            1           0 setosa 
10            5           3            2           0 setosa 
# ℹ 140 more rows

Wrangling multiple columns

Target specific columns

iris %>%
  mutate(across(starts_with("Sepal"), round))

# A tibble: 150 × 5
   Sepal.Length Sepal.Width Petal.Length Petal.Width Species
          <dbl>       <dbl>        <dbl>       <dbl> <fct>  
 1            5           4          1.4         0.2 setosa 
 2            5           3          1.4         0.2 setosa 
 3            5           3          1.3         0.2 setosa 
 4            5           3          1.5         0.2 setosa 
 5            5           4          1.4         0.2 setosa 
 6            5           4          1.7         0.4 setosa 
 7            5           3          1.4         0.3 setosa 
 8            5           3          1.5         0.2 setosa 
 9            4           3          1.4         0.2 setosa 
10            5           3          1.5         0.1 setosa 
# ℹ 140 more rows

Wrangling multiple columns

Target specific columns

iris %>%
  mutate(across(ends_with("Width"), round))

# A tibble: 150 × 5
   Sepal.Length Sepal.Width Petal.Length Petal.Width Species
          <dbl>       <dbl>        <dbl>       <dbl> <fct>  
 1          5.1           4          1.4           0 setosa 
 2          4.9           3          1.4           0 setosa 
 3          4.7           3          1.3           0 setosa 
 4          4.6           3          1.5           0 setosa 
 5          5             4          1.4           0 setosa 
 6          5.4           4          1.7           0 setosa 
 7          4.6           3          1.4           0 setosa 
 8          5             3          1.5           0 setosa 
 9          4.4           3          1.4           0 setosa 
10          4.9           3          1.5           0 setosa 
# ℹ 140 more rows

Wrangling multiple columns

Target specific columns

iris %>%
  mutate(across(matches("Sepal|Petal"), round))

# A tibble: 150 × 5
   Sepal.Length Sepal.Width Petal.Length Petal.Width Species
          <dbl>       <dbl>        <dbl>       <dbl> <fct>  
 1            5           4            1           0 setosa 
 2            5           3            1           0 setosa 
 3            5           3            1           0 setosa 
 4            5           3            2           0 setosa 
 5            5           4            1           0 setosa 
 6            5           4            2           0 setosa 
 7            5           3            1           0 setosa 
 8            5           3            2           0 setosa 
 9            4           3            1           0 setosa 
10            5           3            2           0 setosa 
# ℹ 140 more rows

Wrangling multiple columns

Target specific columns based on another function

iris %>%
  mutate(across(where(is.numeric), round))

# A tibble: 150 × 5
   Sepal.Length Sepal.Width Petal.Length Petal.Width Species
          <dbl>       <dbl>        <dbl>       <dbl> <fct>  
 1            5           4            1           0 setosa 
 2            5           3            1           0 setosa 
 3            5           3            1           0 setosa 
 4            5           3            2           0 setosa 
 5            5           4            1           0 setosa 
 6            5           4            2           0 setosa 
 7            5           3            1           0 setosa 
 8            5           3            2           0 setosa 
 9            4           3            1           0 setosa 
10            5           3            2           0 setosa 
# ℹ 140 more rows

Wrangling multiple columns

Using anonymous function to further specify arguments

iris %>%
  mutate(across(where(is.numeric), ~ round(.x, digits = -1)))

# A tibble: 150 × 5
   Sepal.Length Sepal.Width Petal.Length Petal.Width Species
          <dbl>       <dbl>        <dbl>       <dbl> <fct>  
 1           10           0            0           0 setosa 
 2            0           0            0           0 setosa 
 3            0           0            0           0 setosa 
 4            0           0            0           0 setosa 
 5            0           0            0           0 setosa 
 6           10           0            0           0 setosa 
 7            0           0            0           0 setosa 
 8            0           0            0           0 setosa 
 9            0           0            0           0 setosa 
10            0           0            0           0 setosa 
# ℹ 140 more rows
…
Wrangling multiple columns

Converting text to binary values

membersurvey %>%
  mutate(Q3_1 = if_else(Q3_1 == "Yes", 1, 0))

# A tibble: 215 × 109
      id  Q1_1  Q1_2 Q2     Q3_1 Q3_2  Q3_3  Q3_4  Q3_5  Q3_6  Q3_7  Q3_8  Q3_9 
   <dbl> <dbl> <dbl> <ord> <dbl> <fct> <fct> <fct> <fct> <fct> <fct> <fct> <fct>
 1     3     8   2   2009      0 No    No    No    No    No    No    No    No   
 2     5    35  12   Befo…     1 No    No    No    No    No    No    No    Yes  
 3     6    34  12   Befo…     1 Yes   No    No    No    Yes   No    No    No   
 4    11    20   9   2010      0 No    No    No    No    No    No    No    No   
 5    13    20   3   2010      0 No    No    No    No    No    No    No    No   
 6    15    36  20   Befo…     0 Yes   No    No    No    No    No    No    Yes  
 7    21    12   2.5 2009      1 No    No    No    No    Yes   Yes   No    No   
 8    22    11   0.5 2011      1 Yes   Yes   Yes   Yes   No    No    No    No   
 9    23    18   3   2008      1 Yes   Yes   Yes   Yes   Yes   No    No    Yes  
10    25    24   8   2006      0 No    No    Yes   Yes   Yes   No    No    Yes  
# ℹ 205 more rows
# ℹ 96 more variables: Q3_10 <fct>, Q3_11 <fct>, Q3_12 <fct>, Q3_13 <fct>,
#   Q3_14 <fct>, Q3_15 <fct>, Q4 <fct>, Q5 <fct>, Q6_1 <fct>, Q6_2 <fct>,
#   Q6_3 <fct>, Q6_4 <fct>, Q6_5 <fct>, Q6_6 <fct>, Q6_7 <fct>, Q6_8 <fct>,
#   Q6_9 <fct>, Q6_10 <fct>, Q7 <fct>, Q8 <fct>, Q9_1 <fct>, Q9_2 <fct>,
#   Q9_3 <fct>, Q9_4 <fct>, Q9_5 <fct>, Q10 <fct>, Q11_1 <fct>, Q11_2 <fct>,
#   Q11_3 <fct>, Q11_4 <fct>, Q11_5 <fct>, Q11_other <fct>, Q12_1 <fct>, …

Wrangling multiple columns

Converting all Q3_* columns

membersurvey %>%
  mutate(across(starts_with("Q3_"), ~ if_else(.x == "Yes", 1, 0)))

# A tibble: 215 × 109
      id  Q1_1  Q1_2 Q2     Q3_1  Q3_2  Q3_3  Q3_4  Q3_5  Q3_6  Q3_7  Q3_8  Q3_9
   <dbl> <dbl> <dbl> <ord> <dbl> <dbl> <dbl> <dbl> <dbl> <dbl> <dbl> <dbl> <dbl>
 1     3     8   2   2009      0     0     0     0     0     0     0     0     0
 2     5    35  12   Befo…     1     0     0     0     0     0     0     0     1
 3     6    34  12   Befo…     1     1     0     0     0     1     0     0     0
 4    11    20   9   2010      0     0     0     0     0     0     0     0     0
 5    13    20   3   2010      0     0     0     0     0     0     0     0     0
 6    15    36  20   Befo…     0     1     0     0     0     0     0     0     1
 7    21    12   2.5 2009      1     0     0     0     0     1     1     0     0
 8    22    11   0.5 2011      1     1     1     1     1     0     0     0     0
 9    23    18   3   2008      1     1     1     1     1     1     0     0     1
10    25    24   8   2006      0     0     0     1     1     1     0     0     1
# ℹ 205 more rows
# ℹ 96 more variables: Q3_10 <dbl>, Q3_11 <dbl>, Q3_12 <dbl>, Q3_13 <dbl>,
#   Q3_14 <dbl>, Q3_15 <dbl>, Q4 <fct>, Q5 <fct>, Q6_1 <fct>, Q6_2 <fct>,
#   Q6_3 <fct>, Q6_4 <fct>, Q6_5 <fct>, Q6_6 <fct>, Q6_7 <fct>, Q6_8 <fct>,
#   Q6_9 <fct>, Q6_10 <fct>, Q7 <fct>, Q8 <fct>, Q9_1 <fct>, Q9_2 <fct>,
#   Q9_3 <fct>, Q9_4 <fct>, Q9_5 <fct>, Q10 <fct>, Q11_1 <fct>, Q11_2 <fct>,
#   Q11_3 <fct>, Q11_4 <fct>, Q11_5 <fct>, Q11_other <fct>, Q12_1 <fct>, …
…
Mapping a function in a tibble

Many specifications: 4 models x 5 continents

many_models_tbl %>%
  select(continent, model_name, lm_res) %>%
  unnest(lm_res)

# A tibble: 60 × 9
# Groups:   continent [5]
   continent model_name term     estimate std.error statistic   p.value conf.low
   <fct>     <chr>      <chr>       <dbl>     <dbl>     <dbl>     <dbl>    <dbl>
 1 Asia      m1         (Interc…  5.75e+1  6.33e- 1     90.8  2.45e-266  5.63e+1
 2 Asia      m1         gdpPerc…  3.23e-4  3.93e- 5      8.21 3.29e- 15  2.45e-4
 3 Asia      m2         (Interc…  5.38e+1  6.20e- 1     86.8  1.65e-258  5.26e+1
 4 Asia      m2         gdpPerc…  1.12e-3  7.42e- 5     15.1  4.05e- 41  9.78e-4
 5 Asia      m2         I(gdpPe… -1.03e-8  8.47e-10    -12.1  7.01e- 29 -1.19e-8
 6 Asia      m3         (Interc… -6.16e+0  3.67e+ 0     -1.68 9.38e-  2 -1.34e+1
 7 Asia      m3         gdpPerc… -2.73e-4  4.50e- 5     -6.07 3.04e-  9 -3.62e-4
 8 Asia      m3         log(gdp…  8.47e+0  4.84e- 1     17.5  3.55e- 51  7.52e+0
 9 Asia      m4         (Interc… -4.56e+1  5.63e+ 0     -8.10 6.83e- 15 -5.67e+1
10 Asia      m4         gdpPerc… -2.46e-4  4.14e- 5     -5.94 6.19e-  9 -3.27e-4
# ℹ 50 more rows
# ℹ 1 more variable: conf.high <dbl>
…
